0.0100801888023;0.1004001434375115;2.20623031911;537.243545561;11.8860299844;0.218934826183;0.0112359550562;1573.36355125;1841.98532403;-786371.438175;238391621.263;0
0.00917422389984;0.09578216900781329;2.24503419317;981.155332031;18.2116210937;0.171340827457;0.0112359550562;1352.5915607;1843.16922672;-674952.357398;201718977.612;0
0.0101706630659;0.10084970533350532;2.20482085801;499.196972352;12.7661507009;0.221126315181;0.0112359550562;1591.56120805;1841.15969422;-834683.699404;261081445.59;0
0.0102631521505;0.10130721667528335;2.22252671721;343.867965179;11.282605953;0.209576702484;0.0112359550562;1576.53989455;1748.47387714;-578986.774267;206378448.682;0
0.00935754752659;0.09673441748721785;2.2581766725;845.18007204;18.0587324766;0.163699932348;0.0112359550562;1326.56287214;1749.15290816;-463073.474668;166597912.2;0
0.0104263203354;0.10210935478890329;2.22173022586;555.090304736;13.4260190217;0.208748930752;0.0112359550562;1470.01395888;1747.55911125;-525438.450002;190093220.316;0
0.0142800760981;0.1194992723748065;2.09695739206;542.994235248;10.8883540373;0.227895588862;0.0112359550562;1477.03354793;1748.53066556;-1063270.62386;296650420.899;0
0.0132032480169;0.11490538724041402;2.13505655787;1171.45047702;18.1273851246;0.184403982073;0.0112359550562;1164.32578356;1750.05102207;-857818.584963;227350159.668;0
0.0143532183608;0.11980491793253882;2.10088594883;674.695344572;13.0551236886;0.22593391599;0.0112359550562;1410.65504681;1748.00271909;-1059468.74165;307351532.354;0
0.00982797271391;0.09913613223197057;2.22110394141;372.21262166;11.7552388692;0.202018716641;0.0113636363636;1543.43210876;1729.53841959;-577159.796385;203720912.538;0
0.00900794445836;0.0949101915410607;2.25399336787;987.728108229;19.3185042847;0.158669236767;0.0113636363636;1234.30639766;1728.17045177;-424013.12891;152232852.593;0
0.00990506789305;0.0995242075730801;2.22248686723;689.792718794;14.7505562973;0.197731207359;0.0113636363636;1382.427888;1727.3242474;-481736.011029;174426828.108;0
0.0513204908821;0.2265402632693099;1.69751483352;1236.47731191;14.0543887147;0.430430243154;0.0102040816327;7385.31802604;8003.55668199;-4393376.15891;1716246556.9;1
0.0464450894648;0.21551122816415016;1.75688930103;2114.44395201;19.5725965743;0.386032463637;0.0102040816327;6942.196511;7999.418487;-4217576.55852;1653238865.37;1
0.0499209287724;0.22342991915238722;1.7152334518;1309.20225313;14.6514694357;0.427067506907;0.0102040816327;7340.74233896;7995.34346552;-4416901.42155;1715411602.0;1
0.0468425397884;0.21643137431617665;1.68046997366;1139.58552116;13.2299568966;0.446590956556;0.0102040816327;7665.14334715;8234.93610773;-4651349.89487;1836396618.1;1
0.0404688163196;0.20116862657882306;1.7603016864;2150.20803648;19.8725641454;0.382904977311;0.0102040816327;7158.91266022;8234.01667846;-4414107.48688;1755507181.71;1
0.0433752274785;0.20826720211900626;1.71787481679;1351.28532524;15.002507837;0.425658332308;0.0102040816327;7551.97834112;8227.62100374;-4576377.90088;1811315176.54;1
0.0616075365931;0.24820865535491624;1.67120128064;1198.3635384;13.5393221003;0.448402601211;0.0102040816327;7373.41724193;7972.59901113;-4313781.47385;1684915840.15;1
0.0559215766141;0.2364774336254784;1.72870474657;2034.2555989;18.8296695198;0.405319090897;0.0102040816327;6958.94798233;7976.07578178;-4131265.14199;1622733707.44;1
0.059917155954;0.24477981116497988;1.6881732481;1254.49840321;14.1160168495;0.445301013037;0.0102040816327;7341.58485761;7968.83405922;-4318180.58592;1680214327.56;1
0.0478516433036;0.21875018469388982;1.68511420517;1142.7044377;13.2537127743;0.45354580036;0.0103092783505;7718.93911252;8290.29133137;-4532036.69277;1809875095.79;1
0.041347597718;0.20334108713689242;1.76338680375;2136.05760557;19.7096726644;0.389973763746;0.0103092783505;7233.04653406;8301.07533684;-4336087.88185;1739573127.21;1
0.0447480873536;0.21153743723884552;1.7180000841;1306.99083072;14.5985501567;0.435564803699;0.0103092783505;7638.26971667;8291.76513203;-4505712.30618;1796919708.68;1
0.0173410946129;0.13168558999726898;2.15537468943;2755.65579937;27.7658111285;0.270294102536;0.00990099009901;6959.54510575;8337.37300544;-521485.529846;1195615863.25;2
0.0126294294557;0.1123807343617251;2.25994353937;5804.55468205;49.0800110062;0.172414994381;0.00990099009901;5435.73570723;8338.01304825;-376073.850676;1046010970.78;2
0.0156925479801;0.12526990053508844;2.19043466428;3507.62408895;33.5646257837;0.248863431348;0.00990099009901;6583.27051878;8337.08256326;-491219.976572;1152409817.87;2
0.018172940149;0.13480704784608452;2.1602139826;2623.61416536;26.7223746082;0.274801265638;0.00990099009901;6639.86246767;7951.66955035;-968346.271395;1115011805.41;2
0.0131980126317;0.11488260369480897;2.26493892249;5638.23004884;48.3971659084;0.175261563988;0.00990099009901;5133.34362072;7952.45864514;-731489.502996;964436929.504;2
0.0161596961109;0.12712079338512133;2.19834506399;3388.29268221;32.9262441223;0.248386815641;0.00990099009901;6256.56639855;7950.71273966;-909995.424128;1069955138.25;2
0.0188670495005;0.1373573787624239;2.15131227667;2604.10980603;26.8348060345;0.274074966417;0.01;6631.50861172;7933.56351474;-641830.248374;1088412935.65;2
0.0140727172776;0.11862848425895069;2.24473330532;5149.05249555;45.6326588772;0.182702495314;0.01;5359.90981839;7934.43606616;-482459.719872;964250414.671;2
0.0165664010294;0.1287105319289535;2.19275229031;3414.78191614;33.4673001567;0.244939765807;0.01;6226.71858824;7934.10954631;-595172.662102;1042622151.93;2
0.0188612667642;0.13733632718315347;2.16489873986;2456.61551724;25.8709639498;0.284487055049;0.0102040816327;6462.28348912;7690.59124774;-686868.836355;1033749035.53;2
0.0142259506777;0.11927258980039172;2.25512172258;4925.20301491;44.6973005375;0.189473265764;0.0102040816327;5228.82015238;7691.42165983;-526411.310798;915337879.571;2
0.0166207697678;0.1289215644018722;2.20552682624;3340.46012931;33.2475901254;0.246020712121;0.0102040816327;6019.99394458;7690.22400923;-629175.303265;986250995.956;2
0.0154292871287;0.12421468161479239;2.19785213316;1656.74981387;20.5374706113;0.33295870589;0.00943396226415;6225.13222249;7053.50712943;3424299.09197;1372659433.19;3
0.0136927362462;0.11701596577483007;2.23986330425;2715.16459154;27.5101070155;0.295877586908;0.00943396226415;5696.64377327;7054.22606905;3226938.88159;1299133519.15;3
0.0152020990437;0.12329679251162123;2.20317155185;1715.22284483;21.0391065831;0.341906944803;0.00943396226415;6195.83274517;7053.44416758;3399258.58066;1363391229.22;3
0.02180347844;0.14766000961663386;2.11757166632;1723.62099334;21.3682895768;0.312109613996;0.00943396226415;6290.31795796;7152.12845463;3507069.56597;1405141693.4;3
0.0193552385062;0.13912310557974952;2.17102356624;3018.57217402;29.8675622291;0.268876169538;0.00943396226415;5644.1109142;7153.39700121;3228958.3149;1305426550.66;3
0.0212693009309;0.14583998399245335;2.13101008295;1934.8028703;23.0813577586;0.307936338995;0.00943396226415;6190.52609755;7157.9275327;3468881.14883;1386979794.98;3
0.0220423212463;0.14846656608910425;2.12938266587;1644.09726685;20.2238930251;0.343472426851;0.00943396226415;5922.55592597;6744.60455939;3690737.02103;1396198742.19;3
0.0193465758899;0.1390919691782434;2.18423443552;2962.84101964;29.0990359765;0.297149972539;0.00943396226415;5253.35936532;6734.77987515;3397499.35148;1290054646.75;3
0.0219577237043;0.14818138784718202;2.13505252022;1696.28729428;20.662294279;0.348850391006;0.00943396226415;5885.88826244;6734.03190958;3688069.04138;1388382958.38;3
0.0250246948119;0.15819195558517862;2.09978038304;1592.17696904;20.3778507053;0.327455431551;0.00943396226415;5495.07490351;6291.16338804;3665331.92637;1333559325.17;3
0.0223323225754;0.14944003003024742;2.1495624757;2863.69031358;29.0523874569;0.28457235108;0.00943396226415;4854.00701749;6285.85217428;3343519.5608;1220011215.4;3
0.0242030111456;0.15557316974851726;2.11399012913;1900.23773511;22.9848158307;0.319326269052;0.00943396226415;5336.409324;6286.52819155;3585202.48156;1301729985.47;3