ASM - HSD;ASM - GLCM;ASM - X;ENERGY - HSD;ENERGY - GLCM;ENERGY - X;ENTROPY - HSD;ENTROPY - GLCM;ENTROPY - X;CONTRAST - HSD;CONTRAST - GLCM;CONTRAST - X;DISSIMILARITY - HSD;DISSIMILARITY - GLCM;DISSIMILARITY - X;HOMOGENEITY - HSD;HOMOGENEITY - GLCM;HOMOGENEITY - X;MEAN - HSD;MEAN - GLCM;MEAN - X;CORRELATION - HSD;CORRELATION - GLCM;CORRELATION - X;VARIANCE- HSD;VARIANCE - GLCM;VARIANCE - X;CLUSTER SHADE - HSD;CLUSTER SHADE  - GLCM;CLUSTER SHADE  - X;CLUSTER PROMINENCE - HSD;CLUSTER PROMINENCE - GLCM;CLUSTER PROMINENCE - X
0.0003614438476891024;0.06042404056738526;168;4.462269723504164e-06;1.338680917228885e-06;4;0.0003819702884229059;0.07003175351136015;184;0.00033020795961746785;0.09314854181949883;283;0.00020794176916361096;0.07825527038677116;377;0.0004399797948426709;0.08564523527763335;195;9.727747999477288e-05;0.00013342186476528184;2;0.000983038020322624;0.09820250850954793;100;0.0009808068854599838;0.09960544611095301;102;0.0006666630968492626;0.12198551368756583;183;0.0006702329126309081;0.13007293133637887;195
0.00036412120952533655;0.06355387655220213;175;4.016042751686655e-06;1.338680917228885e-06;4;0.00040249672915493306;0.07196168516723844;179;0.00036545989044256544;0.11317654702428825;310;0.00022623707503655055;0.08059528463033416;357;0.00048683362695101096;0.0867393838140984;179;0.00013252941081987046;0.00016421152586332255;2;0.001059342832611776;0.09392096070882516;89;0.0011177985660069112;0.1002788026123902;90;0.0006742489553808184;0.12328715776622445;183;0.0006742489553843711;0.13032103353306468;194
0.0003565353509920044;0.0629122021658084;177;3.123588808051636e-06;8.924539436350187e-07;4;0.0003824165153964998;0.06300546360305148;165;0.0003181598313624079;0.0922328840720148;290;0.000199909683662014;0.0748063821166518;375;0.0007041461625370005;0.09312801537876325;133;9.772370696836674e-05;0.00014457753907493043;2;0.0009803606584881663;0.08405443612082308;86;0.0009852691551870407;0.10016322982652426;102;0.0006992376658416788;0.13777480888098737;198;0.0006903131263911177;0.13206354986050783;192
0.0003940184166779659;0.06712949328250062;171;4.462269725280521e-06;1.338680917228885e-06;4;0.00039089482787346697;0.07156766675055692;184;0.0006711253665763195;0.10309627971648538;154;0.0002315917987054661;0.0737140184880758;319;0.0005341336860311685;0.08857337667089737;166;0.00010307843063728228;0.00014323885815770154;2;0.0010258758096775011;0.08440829410998418;83;0.0010267682636246889;0.09822749722000523;96;0.0006943291691428044;0.125724449489784;182;0.0006680017777682679;0.12268296644551668;184
