0.0513204908821;0.2265402632693099;1.69751483352;1236.47731191;14.0543887147;0.430430243154;160.300607367;7385.31802604;8003.55668199;-4393376.15891;1716246556.9;0
0.0464450894648;0.21551122816415016;1.75688930103;2114.44395201;19.5725965743;0.386032463637;160.355907469;6942.196511;7999.418487;-4217576.55852;1653238865.37;0
0.0499209287724;0.22342991915238722;1.7152334518;1309.20225313;14.6514694357;0.427067506907;160.391330329;7340.74233896;7995.34346552;-4416901.42155;1715411602.0;0
0.045716009942;0.21381302566026272;1.76574247943;2257.35632511;20.3666532365;0.382704505878;160.354109138;6870.80113913;7999.47930168;-4239431.25874;1652602625.64;0
0.0468425397884;0.21643137431617665;1.68046997366;1139.58552116;13.2299568966;0.446590956556;161.05862069;7665.14334715;8234.93610773;-4651349.89487;1836396618.1;0
0.0404688163196;0.20116862657882306;1.7603016864;2150.20803648;19.8725641454;0.382904977311;161.029864093;7158.91266022;8234.01667846;-4414107.48688;1755507181.71;0
0.0433752274785;0.20826720211900626;1.71787481679;1351.28532524;15.002507837;0.425658332308;161.106827978;7551.97834112;8227.62100374;-4576377.90088;1811315176.54;0
0.040418709037;0.20104404750446817;1.76144327664;2161.62269435;19.9498334332;0.383169801427;161.028964928;7153.38298008;8234.19432725;-4368019.86487;1746676480.14;0
0.0616075365931;0.24820865535491624;1.67120128064;1198.3635384;13.5393221003;0.448402601211;159.222648903;7373.41724193;7972.59901113;-4313781.47385;1684915840.15;0
0.0559215766141;0.2364774336254784;1.72870474657;2034.2555989;18.8296695198;0.405319090897;159.17078252;6958.94798233;7976.07578178;-4131265.14199;1622733707.44;0
0.059917155954;0.24477981116497988;1.6881732481;1254.49840321;14.1160168495;0.445301013037;159.227826215;7341.58485761;7968.83405922;-4318180.58592;1680214327.56;0
0.0550822356912;0.23469604958578652;1.73734820541;2178.26152455;19.6784131445;0.403234870449;159.171711166;6886.8463252;7975.97708747;-4152352.73659;1622209183.02;0
0.0478516433036;0.21875018469388982;1.68511420517;1142.7044377;13.2537127743;0.45354580036;158.98562402;7718.93911252;8290.29133137;-4532036.69277;1809875095.79;0
0.041347597718;0.20334108713689242;1.76338680375;2136.05760557;19.7096726644;0.389973763746;158.816481756;7233.04653406;8301.07533684;-4336087.88185;1739573127.21;0
0.0447480873536;0.21153743723884552;1.7180000841;1306.99083072;14.5985501567;0.435564803699;158.923765674;7638.26971667;8291.76513203;-4505712.30618;1796919708.68;0
0.0417117061062;0.20423443907961675;1.75995294405;2091.40540089;19.4022366132;0.391490184543;158.816349092;7255.34911845;8301.0518189;-4309399.38098;1736110699.9;0
0.0154292871287;0.12421468161479239;2.19785213316;1656.74981387;20.5374706113;0.33295870589;86.3971933777;6225.13222249;7053.50712943;3424299.09197;1372659433.19;1
0.0136927362462;0.11701596577483007;2.23986330425;2715.16459154;27.5101070155;0.295877586908;86.3784160926;5696.64377327;7054.22606905;3226938.88159;1299133519.15;1
0.0152020990437;0.12329679251162123;2.20317155185;1715.22284483;21.0391065831;0.341906944803;86.4615889498;6195.83274517;7053.44416758;3399258.58066;1363391229.22;1
0.0136290863347;0.1167436779217927;2.2423545218;2806.81323886;28.1145625534;0.292674339209;86.377777341;5650.74656725;7054.15318669;3191949.25593;1291013642.39;1
0.02180347844;0.14766000961663386;2.11757166632;1723.62099334;21.3682895768;0.312109613996;82.3443720611;6290.31795796;7152.12845463;3507069.56597;1405141693.4;1
0.0193552385062;0.13912310557974952;2.17102356624;3018.57217402;29.8675622291;0.268876169538;82.3653609929;5644.1109142;7153.39700121;3228958.3149;1305426550.66;1
0.0212693009309;0.14583998399245335;2.13101008295;1934.8028703;23.0813577586;0.307936338995;82.402796826;6190.52609755;7157.9275327;3468881.14883;1386979794.98;1
0.0192283616549;0.13866636814636055;2.17257677629;3024.02524543;30.0888650858;0.266164147614;82.3658719942;5641.38398997;7153.39661268;3273631.99685;1315605337.26;1
0.0220423212463;0.14846656608910425;2.12938266587;1644.09726685;20.2238930251;0.343472426851;80.2344778605;5922.55592597;6744.60455939;3690737.02103;1396198742.19;1
0.0193465758899;0.1390919691782434;2.18423443552;2962.84101964;29.0990359765;0.297149972539;80.1197757491;5253.35936532;6734.77987515;3397499.35148;1290054646.75;1
0.0219577237043;0.14818138784718202;2.13505252022;1696.28729428;20.662294279;0.348850391006;80.1793740204;5885.88826244;6734.03190958;3688069.04138;1388382958.38;1
0.0197886366225;0.1406720889959929;2.17304301412;2630.82683936;27.0107408536;0.304665708802;80.1187881408;5419.25246141;6734.66588109;3496043.56372;1320575942.49;1
0.0250246948119;0.15819195558517862;2.09978038304;1592.17696904;20.3778507053;0.327455431551;72.9931671238;5495.07490351;6291.16338804;3665331.92637;1333559325.17;1
0.0223323225754;0.14944003003024742;2.1495624757;2863.69031358;29.0523874569;0.28457235108;72.9452737296;4854.00701749;6285.85217428;3343519.5608;1220011215.4;1
0.0242030111456;0.15557316974851726;2.11399012913;1900.23773511;22.9848158307;0.319326269052;72.9537617555;5336.409324;6286.52819155;3585202.48156;1301729985.47;1
0.0221855011569;0.148947981379073;2.15035670208;2861.92712336;29.1773076129;0.280660937704;72.9463645208;4855.03306066;6285.99662234;3364446.78025;1227334995.51;1
0.010521619937;0.10257494790138776;2.2149658934;35.1831504702;3.99053683386;0.353690390008;159.544945141;3802.37768433;3819.96925957;-599993.000237;325993449.059;2
0.0103008478222;0.10149309248492647;2.22971031254;44.5662483663;4.52910250489;0.325067261383;159.568076178;3799.26817081;3821.55129499;-596260.273401;325616580.971;2
0.0105819132499;0.10286842688530583;2.21511692672;35.2693279781;3.99256465517;0.353437755411;159.513856779;3804.64465762;3822.27932161;-584063.382782;325618627.237;2
0.0102957165373;0.10146781035028105;2.22907648529;44.2368589145;4.51169898095;0.325167761015;159.568199015;3799.49428068;3821.61271014;-574864.724637;324501185.917;2
0.00990482563003;0.09952299045964286;2.22787090949;31.3464047806;3.76011951411;0.368016833732;153.221252939;3803.31443125;3818.98763364;-388207.725757;311956335.124;2
0.00953105910169;0.09762714326295421;2.24463386901;40.0102691601;4.28972789182;0.339162546283;153.25920048;3800.89271571;3820.89785029;-385475.850139;311787950.899;2
0.00991105096286;0.09955426139978436;2.2273371177;30.4373138715;3.69540556426;0.373235524116;153.186192202;3805.68127821;3820.89993514;-388535.677045;312460889.119;2
0.00957316796891;0.09784256726452145;2.24324682071;39.6651467655;4.26952368786;0.339798992013;153.259170999;3801.03938957;3820.87196296;-399641.055013;312275573.379;2
0.00978351561041;0.0989116555842289;2.2668933627;33.2118338558;3.80871865204;0.363520082225;145.354858934;4158.2975793;4174.90349623;-376355.031375;385686867.687;2
0.00938084096879;0.09685474159165741;2.28187217159;43.2733758513;4.32505576793;0.333102280718;145.213038394;4154.13442364;4175.77111157;-361293.21332;384657321.885;2
0.00977498516745;0.09886852465497388;2.26544450858;31.7804760972;3.72367750784;0.367571303806;145.114405368;4160.37906899;4176.26930704;-347255.267304;385046598.079;2
0.00933826181103;0.09663468223694216;2.28425655356;43.9617240397;4.38013580841;0.332751477451;145.212522479;4153.81349781;4175.79435983;-342516.318347;384155147.226;2
0.00714174078079;0.08450882072770759;2.31154660059;29.2702684169;3.64001763323;0.362876960452;141.229285854;3794.52082628;3809.15596049;-25884.8443042;310558864.899;2
0.00683566360581;0.08267807209779242;2.32840578881;37.8154007921;4.18017708159;0.329447170631;141.100652509;3790.5291167;3809.43681709;-12783.0579667;310282593.497;2
0.00714194135032;0.08451000739747244;2.30912711716;27.4425744514;3.53232758621;0.367410376161;141.029408307;3796.08472545;3809.80601268;-19296.354191;311137741.683;2
0.0068582763717;0.08281471108263731;2.32740030874;36.9802871434;4.13473727656;0.331276767273;141.100740952;3790.88886528;3809.37900886;-32652.4585257;310323668.859;2
0.00897362946328;0.0947292429151458;2.33877018284;1046.28443378;17.3545748433;0.26776377673;115.758733346;6402.70356657;6925.84578346;784033.759483;954905117.478;3
0.00785032535994;0.08860206182668587;2.36606918207;1424.43441987;23.396104598;0.170736845977;115.747992846;6212.87774585;6925.09495578;815644.449128;928326584.021;3
0.00935018599801;0.09669635979711179;2.30472248837;390.91875;12.7432014107;0.239734966252;115.757210031;6727.3325268;6922.7919018;881172.717057;973956800.152;3
0.00799110851853;0.08939300038891886;2.36003354275;1280.53999076;22.3253505764;0.173901798146;115.748469453;6284.77761567;6925.04761105;805428.212212;932605489.526;3
0.00735874166091;0.08578310824931568;2.40793029287;1211.25330133;20.7069847179;0.229138061155;103.341638911;5481.42467218;6087.05132285;1097979.27414;819376906.642;3
0.00638173706663;0.07988577512066784;2.43179628523;1530.15275007;25.2658484095;0.147814614446;103.345220664;5320.36671323;6085.44308827;1081575.71189;799361389.34;3
0.00762198792545;0.08730399719053772;2.37124744275;412.410834639;12.7377351097;0.225845552015;103.283248433;5878.8508984;6085.05631572;1247817.09673;861862907.827;3
0.0064574505578;0.08035826378040474;2.42939187137;1456.02580556;24.4715755545;0.15106998558;103.344513124;5357.38993086;6085.40283364;1119980.82232;805705908.633;3
0.00874891577293;0.0935356390523221;2.35216388796;983.392819357;17.2340027429;0.261241343315;115.367363832;6106.95455258;6598.65096225;570021.219556;877737563.556;3
0.00753671033687;0.08681422888482006;2.37570679183;1276.76275783;22.4146873557;0.169018470102;115.353607964;5959.21539199;6597.59677091;607609.344091;856450327.768;3
0.00903004746569;0.09502656189556513;2.3152715669;378.135256661;12.576440047;0.232939180046;115.164826607;6407.88815615;6596.95578448;690338.330241;896421324.716;3
0.00751890419122;0.08671161508827349;2.3756211704;1275.81106711;22.5284342725;0.167604733895;115.352757933;5959.69194989;6597.59748345;642304.962305;856903388.173;3
0.00820592587196;0.09058656562624136;2.39839306458;1093.65973746;19.7677507837;0.234422460161;96.7612558777;4866.78848194;5413.61835067;1317581.89574;713149975.835;3
0.00690104480449;0.08307252737511583;2.42233688851;1427.12538202;24.651959002;0.141190401592;96.7588074017;4699.74079854;5413.30348955;1296908.29657;694632951.616;3
0.0080669419338;0.08981615630718036;2.36535188913;355.397609718;12.1008816614;0.217313568984;96.6195434953;5232.49757626;5410.19638112;1453709.64273;754426651.312;3
0.00699656109981;0.08364544876925031;2.41925133968;1296.11390415;23.4129676399;0.144677039943;96.758094948;4765.1727179;5413.22966998;1291364.67115;699434639.403;3
