0.00206456585381;0.04543749392086245;0.000908319560422;-1;0.0711169724038;93.8387096774;12133.9354839;119.693548387;-1;-1;-809.478147763;11324.4573361;-1;-1;145494.740358;260316472.52;0
0.00142931048951;0.03780622289393741;0.0348462756292;-1;-0.0264378301418;87.6072931276;12007.7643759;120.112201964;-1;-1;-566.600213624;11441.1641623;-1;-1;-51744.9744074;270175510.377;0
0.00175938705484;0.04194504803712228;0.0171278319476;-1;-0.18540924737;101.347826087;14341.2173913;120.5;-1;-1;-2963.2826087;11377.9347826;-1;-1;57328.9565217;190188001.87;0
0.00130112662077;0.036071132790239165;0.00204910816492;-1;-0.0817156540157;94.7545582048;12886.0813464;120.016830295;-1;-1;-1451.26564366;11434.8157028;-1;-1;50235.6470807;271283226.068;0
0.00207734941367;0.045577948765465226;0.000903542002611;-1;0.0701962313747;93.7936507937;12138.031746;119.912698413;-1;-1;-843.189846309;11294.8418997;-1;-1;138583.505605;257777056.751;1
0.00146358352963;0.038256810238565746;0.0336302650334;-1;-0.0312267768246;87.411009794;11938.6045255;120.106720702;-1;-1;-587.759354098;11350.8451714;-1;-1;-54498.8826416;265906488.272;1
0.00179472741469;0.04236422328671369;0.0168101573526;-1;-0.189682316985;100.914893617;14254.8085106;120.308510638;-1;-1;-2933.97759167;11320.830919;-1;-1;61902.9089315;187835277.211;1
0.00129532492472;0.03599062273317378;0.00199233181873;-1;-0.087181816909;94.8868625464;12874.7423168;120.083755488;-1;-1;-1525.42301342;11349.3193034;-1;-1;50166.5371168;264512944.555;1
0.00209301407064;0.04574947071427669;0.000899370050719;-1;0.0694755584069;93.7543035994;12141.6087637;120.104068858;-1;-1;-872.785353925;11268.8234098;-1;-1;132684.931227;255559428.859;2
0.00150168681294;0.03875160400477361;0.0325917670513;-1;-0.0351763452085;87.2646129619;11881.9820897;120.122176809;-1;-1;-607.758553611;11274.2235361;-1;-1;-57860.2794837;262201750.212;2
0.00183249121245;0.0428076069460513;0.0165355910012;-1;-0.19288743961;100.540709812;14180.125261;120.143006263;-1;-1;-2908.76741515;11271.3578458;-1;-1;65804.4679039;185801139.767;2
0.00130061286882;0.036064010714585176;0.00194369329916;-1;-0.0913406771185;94.9894962445;12861.6161082;120.121954646;-1;-1;-1587.40730933;11274.2087988;-1;-1;51074.6585988;258702778.554;2
