0.0939307281589;0.306481203597972;0.612919595245;-1;0.0876574911491;76.7741935484;16780.6451613;145.322580645;-1;-1;7638.50156087;24419.1467222;-1;-1;-838595.716827;1932961637.73;0
0.0621459908185;0.24929097620762075;0.293155451446;-1;-0.231106802199;143.057503506;31615.7082749;140.553997195;-1;-1;-7226.35015117;24389.3581237;-1;-1;1410535.34539;822902088.283;0
0.0921257517662;0.3035222426218242;0.608712199541;-1;0.0855424469392;77.6086956522;16963.0434783;144.130434783;-1;-1;7457.18336484;24420.2268431;-1;-1;-734406.077916;1920715357.1;0
0.0621459908185;0.24929097620762075;0.293155451446;-1;-0.231106802199;143.057503506;31615.7082749;140.553997195;-1;-1;-7226.35015117;24389.3581237;-1;-1;1410535.34539;822902088.283;0
0.09671762661;0.3109945764961293;0.619063728654;-1;0.0906111456779;75.5555555556;16514.2857143;147.063492063;-1;-1;7893.0713026;24407.3570169;-1;-1;-995186.704899;1950539566.09;1
0.063471861004;0.2519362240807126;0.319175733713;-1;-0.217569924162;137.791286727;30451.8743668;144.766970618;-1;-1;-6031.51691339;24420.3574534;-1;-1;1334630.90158;840833097.101;1
0.0957783920711;0.3094808428176468;0.617037471891;-1;0.0896545602438;75.9574468085;16602.1276596;146.489361702;-1;-1;7810.45722046;24412.58488;-1;-1;-942987.656878;1944777249.42;1
0.063471861004;0.2519362240807126;0.319175733713;-1;-0.217569924162;137.791286727;30451.8743668;144.766970618;-1;-1;-6031.51691339;24420.3574534;-1;-1;1334630.90158;840833097.101;1
0.099302614374;0.31512317333709794;0.62442902825;-1;0.0930622866352;74.4913928013;16281.6901408;148.58372457;-1;-1;8105.45624643;24387.1463873;-1;-1;-1135886.76909;1965666208.74;2
0.0653061803339;0.2555507392552101;0.341376742602;-1;-0.206561325368;133.298048556;29458.8687308;148.361561155;-1;-1;-5068.19203994;24390.6766909;-1;-1;1223431.99243;849275708.413;2
0.0992056334159;0.3149692578901923;0.624233009998;-1;0.0929748045291;74.5302713987;16290.1878914;148.528183716;-1;-1;8097.85958046;24388.0474719;-1;-1;-1130685.58571;1965116412.35;2
0.0653061803339;0.2555507392552101;0.341376742602;-1;-0.206561325368;133.298048556;29458.8687308;148.361561155;-1;-1;-5068.19203994;24390.6766909;-1;-1;1223431.99243;849275708.413;2
