0.000119541290389;0.010933493969854904;0.102655378153;-1;0.510095066668;13.195970266;409.128286385;147.789361633;-1;-1;1841.20913072;2250.3374171;-1;-1;-270260.720341;61500157.4897;0
0.00010280664544;0.010139361194846687;0.0921030177353;-1;0.449789229919;15.100081351;523.241534104;147.791790408;-1;-1;1727.25308014;2250.49461424;-1;-1;-256424.915651;58261359.5107;0
0.000158494775239;0.01258947080852313;0.130912223731;-1;0.67003520865;9.26634264092;186.65161143;147.764042928;-1;-1;2067.66448359;2254.31609502;-1;-1;-298866.857994;69729351.3794;0
0.000112214604393;0.010593139496536595;0.0994873625724;-1;0.496968738198;13.6427514285;426.756881348;147.791818179;-1;-1;1823.74061474;2250.49749609;-1;-1;-266478.321355;60841802.8271;0
0.000125897248063;0.01122039429178086;0.114076982997;-1;0.603393493944;10.9109709181;260.82446205;144.011653951;-1;-1;1660.56597772;1921.39043977;-1;-1;-144271.153626;44032821.596;1
9.07362862875e-05;0.00952555963119984;0.0834512695714;-1;0.462106763883;14.712641425;433.394147301;143.990476377;-1;-1;1489.70002214;1923.09416944;-1;-1;-131682.85372;38951658.5056;1
9.87698920356e-05;0.009938304283710184;0.0888907522892;-1;0.499032021869;13.5985940762;364.810852688;143.9663247;-1;-1;1558.65303597;1923.46388866;-1;-1;-140254.644431;41348258.9326;1
8.98943678529e-05;0.009481264042989206;0.0832241278108;-1;0.459257082344;14.8161891787;438.22951441;143.99047311;-1;-1;1484.86426939;1923.0937838;-1;-1;-131120.937104;38835641.5856;1
0.000114458540718;0.010698529839071734;0.103598700495;-1;0.552776216126;12.0603808033;302.148630673;144.790437533;-1;-1;1672.47249578;1974.62112646;-1;-1;-172933.397597;47491262.8201;2
0.000101741291443;0.010086688824535735;0.09370741385;-1;0.508982931204;13.2510479252;353.990264015;144.820201189;-1;-1;1618.0723804;1972.06264441;-1;-1;-167676.698039;45661118.6165;2
0.000124995053539;0.011180118672859366;0.112363486017;-1;0.607681328052;10.6975241388;225.295384264;144.781251631;-1;-1;1748.83881683;1974.13420109;-1;-1;-183546.878522;50210928.7789;2
9.49314411006e-05;0.009743276712717562;0.0867106824568;-1;0.477144022026;14.1685730248;398.563625315;144.820068871;-1;-1;1573.54035411;1972.10397942;-1;-1;-164791.04518;44680095.2575;2
0.000248386544244;0.0157602837615355;0.174943309898;-1;0.753378197316;7.20684989567;121.797675404;146.921959768;-1;-1;2160.35819634;2282.15587174;-1;-1;-345336.577278;75136417.3066;3
0.000172618929984;0.013138452343576024;0.133130682428;-1;0.59831490577;10.4556146902;258.455359856;146.938936099;-1;-1;2023.18735684;2281.6427167;-1;-1;-324672.103262;69893853.832;3
0.000176688455293;0.013292420971856796;0.132011082616;-1;0.5858187593;10.5597925365;263.194356733;146.911779097;-1;-1;2019.40964944;2282.60400617;-1;-1;-325015.812077;69948652.1261;3
0.000146858646749;0.012118524941133172;0.115603755064;-1;0.521270044267;12.3694544908;353.9965532;146.93909292;-1;-1;1927.59984148;2281.59639468;-1;-1;-311878.993543;66555851.8437;3
