0.00688126893935;0.0829534142717921;0.104265371077;0.561542423348;-2.00735687509;13.9174589202;621.558734351;31.0371967919;31.0310576421;62.068254434;398.020930045;708.80029722;708.80029722;708.80029722;435660.144729;123568654.949;0
0.0071022335638;0.08427475045231801;0.0932024862804;0.611892401862;-1.99045967526;14.3816179377;550.201436875;31.042518157;31.0452037206;62.0877218775;433.723261878;708.823980315;708.823980315;708.823980315;506125.244456;157162286.58;0
0.00678371615007;0.08236331798845226;0.112466348122;0.789310327877;-2.01022848901;11.1668156315;298.651131915;31.0289926931;31.0379012265;62.0668939196;559.419826898;708.745392856;708.745392856;708.745392856;606029.900776;201944008.16;0
0.00719730912545;0.08483695613026447;0.0896239679107;0.38647944048;-1.98475558864;16.6142164982;869.758985367;31.03628778;31.0513752895;62.0876630696;273.944917766;708.824410449;708.824410449;708.824410449;342472.664833;85228156.518;0
0.00423405850872;0.0650696435269395;0.139773218345;0.912791660666;-2.18300493327;8.62912102243;155.045233438;39.0604981742;39.0596635368;78.120161711;811.40959469;888.932211409;888.932211409;888.932211409;678132.963808;222321964.112;1
0.00433939692474;0.06587409904309142;0.103482535029;0.81879677983;-2.17425262831;12.1756430487;322.094984661;39.0589321127;39.0760288943;78.1349610071;727.715302782;888.762795112;888.762795112;888.762795112;622106.47172;196596364.404;1
0.00424904172456;0.06518467400054705;0.122819323962;0.830814070948;-2.18276386834;10.9981080376;300.776050365;39.0530858559;39.0709616388;78.1240474948;738.500245206;888.888270388;888.888270388;888.888270388;607513.247414;190027031.94;1
0.00443710687264;0.06661161214560969;0.0941023946746;0.736229127859;-2.16567219724;14.2395084961;468.862245615;39.0580859315;39.0768097334;78.1348956649;654.332462321;888.763585129;888.763585129;888.763585129;573913.938008;175501630.136;1
0.00336609399546;0.05801804887669093;0.135246152424;0.806756771394;-2.28719451056;12.1052784298;379.887040297;59.6709833073;59.6613099896;119.332293297;792.537336199;982.480856348;982.480856348;982.480856348;490441.323178;161050394.404;2
0.00347480809213;0.05894750284900796;0.0991025072241;0.701678444063;-2.27535198476;15.6359362391;586.684593294;59.7137457078;59.6467078976;119.360453605;689.505204851;982.847501498;982.847501498;982.847501498;446662.402795;142531749.393;2
0.00335059110461;0.057884290654805055;0.132714235075;0.85671069649;-2.28937385817;11.1481863257;281.852413883;59.7003131524;59.6430454071;119.343358559;842.131673629;983.05788057;983.05788057;983.05788057;524801.01227;175995245.219;2
0.0034225233854;0.05850233658070976;0.117766952818;0.77382745415;-2.28016177358;13.7370107913;444.797102728;59.7039247781;59.6563622048;119.360286983;760.453068018;982.851619382;982.851619382;982.851619382;494293.479349;163603880.844;2
0.00423438078674;0.06507211988816254;0.160673553785;0.915667712618;-2.17449644934;7.48144887846;131.320546427;40.7866555816;40.769245566;81.5559011476;712.324566778;777.984839991;777.984839991;777.984839991;572495.193277;191964018.147;3
0.0042976375733;0.06555636943348002;0.123820160388;0.826416575266;-2.16824763552;10.387828712;270.237672381;40.8010428612;40.7481058935;81.5491487547;642.690530953;777.809367143;777.809367143;777.809367143;524870.343201;170361983.167;3
0.00423567912705;0.06508209528781012;0.160627424568;0.920411245059;-2.17444587864;7.44508415971;123.981109734;40.7950091336;40.7593064979;81.5543156315;716.291637327;778.282192194;778.282192194;778.282192194;577163.247093;194180721.197;3
0.00428925045532;0.06549236944349592;0.135469140372;0.903647583848;-2.16779107307;8.60811680568;150.001512671;40.7836259029;40.7652876199;81.5489135229;702.799913972;777.800670308;777.800670308;777.800670308;585258.459589;198300837.622;3
