ASM - HSD;ASM - GLCM;ASM - X;ENERGY - HSD;ENERGY - GLCM;ENERGY - X;ENTROPY - HSD;ENTROPY - GLCM;ENTROPY - X;CONTRAST - HSD;CONTRAST - GLCM;CONTRAST - X;DISSIMILARITY - HSD;DISSIMILARITY - GLCM;DISSIMILARITY - X;HOMOGENEITY - HSD;HOMOGENEITY - GLCM;HOMOGENEITY - X;MEAN - HSD;MEAN - GLCM;MEAN - X;CORRELATION - HSD;CORRELATION - GLCM;CORRELATION - X;VARIANCE- HSD;VARIANCE - GLCM;VARIANCE - X;CLUSTER SHADE - HSD;CLUSTER SHADE  - GLCM;CLUSTER SHADE  - X;CLUSTER PROMINENCE - HSD;CLUSTER PROMINENCE - GLCM;CLUSTER PROMINENCE - X
0.000338686272094435;0.04851111908369887;144;4.462269725280521e-06;1.338680917228885e-06;4;0.00032797682475660395;0.06356056995678827;194;0.0005774177023596394;0.09625651268266289;167;0.00023516161448533524;0.1995531483097821;849;0.0033511645631527642;0.37190653151344044;111;0.0002851390354017269;0.00034448722273694443;2;0.003950447387165212;0.3773580864359509;96;0.0037184093614861524;0.45495338713045896;123;0.0028081063376710347;0.4977657415489105;178;0.0006305187120823064;0.14654896984041343;233
0.00034894949246222495;0.05692383619543051;164;3.123588808051636e-06;8.924539436350187e-07;4;0.00034404099576335057;0.06051328596187844;176;0.0003543042161311405;0.10588564452131521;299;0.0004042816370457558;0.09182190903038645;228;0.0004301628014502512;0.11684364028394256;272;9.727747999832559e-05;0.00013520677265432823;2;0.001186071292789137;0.14747979930495703;125;0.012656781846771992;0.8353891009954424;67;0.0076456529460777745;0.923042803876104;121;0.0006238253074961619;0.10979370034609204;177
0.0003413636339324455;0.05091182019551965;150;1.2048128258612678e-05;2.2311348644166173e-06;6;0.00034671835759780834;0.055135358489824426;160;0.00030209566035210855;0.08374921687166648;278;0.0001869691014597663;0.3203775794150161;1714;0.0013426969601226801;0.33829850085586344;252;0.00037795424567121927;0.0004373024330099895;2;0.004769273881620961;0.35849428740229783;76;0.004531434905302945;0.41032221157227156;91;0.0028299714593238434;0.44358307764527893;157;0.0011017343949966119;0.11365713347362671;104
0.0003543042161311405;0.05841958900710864;165;3.1235888044989224e-06;8.924539471877324e-07;4;0.0003284230517266451;0.06733252655496358;206;0.0004158835383307746;0.09072017463538629;219;0.00022579084806295668;0.07541592816102849;335;0.00045202792310305995;0.08666754127153098;192;7.898217412360964e-05;0.0001298520489854127;2;0.0010356928030716972;0.08347567973754622;81;0.0009571568559181287;0.2222661012078433;233;0.002548848466673803;0.6425351582231613;253;0.003797837762583356;0.507168636312521;134
